// Jest Snapshot v1, https://goo.gl/fbAQLP

exports[`should display the profile details when the maximum amount of profile details are loaded 1`] = `
<div
  itemScope={true}
  itemType="https://schema.org/Person"
>
  <section
    className="hero is-medium is-primary is-bold"
  >
    <div
      className="hero-body"
    >
      <div
        className="container"
      >
        <PageMetadata
          title="Some name"
          url="https://flockademic.com/journal/arbitrary_id"
        />
        <h1
          className="title"
          itemProp="name"
        >
          Some name
        </h1>
      </div>
    </div>
  </section>
  <section
    className="section"
    data-test-id="topMatter"
  >
    <div
      className="container"
    >
      <div
        className="columns"
      >
        <div
          className="column is-half-widescreen"
          itemProp="description"
        >
          Some description
        </div>
        <div
          className="column is-offset-one-fifth-widescreen"
        >
          <aside
            className="panel"
          >
            <p
              className="panel-heading"
            >
              About 
              Some name
            </p>
            <p
              className="panel-block"
              itemProp="affliation"
              key="affliation_0"
            >
              <span
                className="panel-icon"
              >
                <img
                  alt=""
                  src={Object {}}
                />
              </span>
              <span>
                <span
                  itemProp="roleName"
                >
                  Some position
                </span>
                , 
                <span
                  itemProp="affliation"
                >
                  Some institution
                </span>
              </span>
            </p>
            <p
              className="panel-block"
              itemProp="affliation"
              key="affliation_1"
            >
              <span
                className="panel-icon"
              >
                <img
                  alt=""
                  src={Object {}}
                />
              </span>
              <span
                itemProp="affliation"
              >
                Some institution without a role
              </span>
            </p>
            <p
              className="panel-block"
              key="some-url"
            >
              <span
                className="panel-icon"
              >
                <img
                  alt=""
                  src={Object {}}
                />
              </span>
              <OutboundLink
                eventLabel="profile_sameAs"
                itemProp="sameAs"
                onClick={null}
                target="_blank"
                title="Some website"
                to="some-url"
              >
                Some website
              </OutboundLink>
            </p>
          </aside>
        </div>
      </div>
    </div>
  </section>
  <section
    className="section"
  >
    <div
      className="container"
    >
      <div
        className="columns"
      >
        <div
          className="column is-half-widescreen"
        >
          <h2
            className="is-size-4"
          >
            Articles by 
            Some name
          </h2>
          <Component
            articles={
              Array [
                Object {
                  "identifier": "some_article_id",
                  "name": "Some article name",
                },
              ]
            }
          />
        </div>
      </div>
    </div>
  </section>
</div>
`;

exports[`should display the profile details when the minimal profile details are loaded 1`] = `
<div
  itemScope={true}
  itemType="https://schema.org/Person"
>
  <section
    className="hero is-medium is-primary is-bold"
  >
    <div
      className="hero-body"
    >
      <div
        className="container"
      >
        <PageMetadata
          title="Some name"
          url="https://flockademic.com/journal/arbitrary_id"
        />
        <h1
          className="title"
          itemProp="name"
        >
          Some name
        </h1>
      </div>
    </div>
  </section>
</div>
`;
